**DIRAC
.WAVE FUNCTION
.ANALYZE
**HAMILTONIAN
.ECP
**GENERAL
.ACMOUT
**INTEGRALS
*READIN
.UNCONTRACT
**WAVE FUNCTION
.SCF
*SCF
.CLOSED SHELL
14 12
.OPEN SHELL
1
3/0,14
**ANALYZE
.MULPOP
*MULPOP
.VECPOP
1..oo
1..oo
**END OF
